# Blender v2.78 (sub 0) OBJ File: ''
# www.blender.org
mtllib myghost.mtl
o ghost_mesh0117.rip
v 6.118001 2.949088 1.610001
v 6.118001 6.008088 1.610002
v 5.152000 6.008088 1.610002
v -6.119249 -4.134733 -1.609999
v -7.245000 -4.134288 -1.609999
v -7.245000 2.949088 -1.609998
v -3.058491 -3.168912 -1.609999
v -3.058491 -4.134912 -1.609999
v -4.025000 -4.134912 -1.609999
v 3.033360 -3.170943 1.610000
v 3.031891 -4.134912 1.610000
v 4.025000 -4.134912 1.610000
v 4.025000 -4.134912 -1.610000
v 3.031890 -4.134912 -1.610000
v 3.033360 -3.170942 -1.610000
v 2.007654 -3.169887 -1.610000
v 2.007420 -4.136298 -1.610000
v 0.965883 -4.135118 -1.610000
v -7.245000 2.949088 -1.609998
v -6.118001 2.949088 -1.609998
v -3.058491 -3.168912 -1.609999
v -4.025000 -4.134912 1.610001
v -3.058490 -4.134912 1.610001
v -3.058490 -3.168912 1.610001
v -2.012245 -3.168912 1.610001
v -2.024776 -4.134912 1.610001
v -0.966000 -4.134260 1.610001
v 6.118000 2.949088 -1.610000
v 6.109400 -4.134733 -1.610000
v 4.025000 -4.134912 -1.610000
v 4.025000 -4.134912 -1.610000
v 3.033360 -3.170942 -1.610000
v 6.118000 2.949088 -1.610000
v 0.965883 -4.135118 1.610000
v 2.007421 -4.136298 1.610000
v 2.007655 -3.169887 1.610000
v -0.966000 -4.134260 -1.610000
v -2.024777 -4.134912 -1.609999
v -2.012245 -3.168912 -1.609999
v -2.012245 -3.168912 -1.609999
v -3.058491 -3.168912 -1.609999
v -6.118001 2.949088 -1.609998
v 2.007655 -3.169887 1.610000
v 3.033360 -3.170943 1.610000
v 6.118001 2.949088 1.610001
v 6.118000 2.949088 -1.610000
v 3.033360 -3.170942 -1.610000
v 2.007654 -3.169887 -1.610000
v 6.118000 2.949088 -1.610000
v 2.007654 -3.169887 -1.610000
v -2.012245 -3.168912 -1.609999
v -2.012245 -3.168912 1.610001
v 2.007655 -3.169887 1.610000
v 6.118001 2.949088 1.610001
v -7.245000 2.949088 1.610002
v -7.245000 -4.134288 1.610001
v -6.119248 -4.134733 1.610001
v -6.118731 -5.101444 -1.609999
v -6.119249 -4.134733 -1.609999
v -4.025000 -4.134912 -1.609999
v -4.023580 -5.103410 -1.609999
v 6.109400 -4.134733 -1.610000
v 6.118000 2.949088 -1.610000
v 7.245000 2.949088 -1.610000
v 7.245000 -4.134288 -1.610001
v -3.058490 -3.168912 1.610001
v -2.012245 -3.168912 1.610001
v -6.118000 2.949088 1.610002
v -7.245000 2.949088 1.610002
v 7.245000 -4.134288 1.609999
v 6.109400 -4.134733 1.610000
v 6.109400 -4.134733 -1.610000
v 7.245000 -4.134288 -1.610001
v 6.112114 -5.101444 1.610000
v 6.112114 -5.101444 -1.610001
v 6.109400 -4.134733 -1.610000
v 6.109400 -4.134733 1.610000
v -3.058490 -3.168912 1.610001
v -3.058491 -3.168912 -1.609999
v -2.012245 -3.168912 -1.609999
v -2.012245 -3.168912 1.610001
v 4.024829 -5.101958 1.610000
v 4.024828 -5.101958 -1.610000
v 6.112114 -5.101444 -1.610001
v 6.112114 -5.101444 1.610000
v -6.118731 -5.101444 1.610001
v -6.119248 -4.134733 1.610001
v -6.119249 -4.134733 -1.609999
v -6.118731 -5.101444 -1.609999
v -7.245000 -4.134288 -1.609999
v -6.119249 -4.134733 -1.609999
v -6.119248 -4.134733 1.610001
v -7.245000 -4.134288 1.610001
v -3.058491 -3.168912 -1.609999
v -3.058490 -3.168912 1.610001
v -3.058490 -4.134912 1.610001
v -3.058491 -4.134912 -1.609999
v -4.025000 -4.134912 -1.609999
v -3.058491 -4.134912 -1.609999
v -3.058490 -4.134912 1.610001
v -4.025000 -4.134912 1.610001
v -2.012245 -3.168912 1.610001
v -2.012245 -3.168912 -1.609999
v -2.024777 -4.134912 -1.609999
v -2.024776 -4.134912 1.610001
v 0.965883 -4.135118 1.610000
v 0.965883 -4.135118 -1.610000
v 2.007420 -4.136298 -1.610000
v 2.007421 -4.136298 1.610000
v 2.007421 -4.136298 1.610000
v 2.007420 -4.136298 -1.610000
v 2.007654 -3.169887 -1.610000
v 2.007655 -3.169887 1.610000
v 0.965726 -5.102015 1.610000
v 0.965726 -5.102014 -1.610000
v 0.965883 -4.135118 -1.610000
v 0.965883 -4.135118 1.610000
v -4.023580 -5.103410 1.610001
v -4.025000 -4.134912 1.610001
v -6.119248 -4.134733 1.610001
v -6.118731 -5.101444 1.610001
v 6.112114 -5.101444 1.610000
v 6.109400 -4.134733 1.610000
v 4.025000 -4.134912 1.610000
v 4.024829 -5.101958 1.610000
v 0.965726 -5.102015 1.610000
v 0.965883 -4.135118 1.610000
v -0.966000 -4.134260 1.610001
v -0.966025 -5.101152 1.610001
v -0.966026 -5.101152 -1.610000
v -0.966000 -4.134260 -1.610000
v 0.965883 -4.135118 -1.610000
v 0.965726 -5.102014 -1.610000
v 4.024828 -5.101958 -1.610000
v 4.025000 -4.134912 -1.610000
v 6.109400 -4.134733 -1.610000
v 6.112114 -5.101444 -1.610001
v -0.966000 -4.134260 -1.610000
v -2.012245 -3.168912 -1.609999
v 2.007654 -3.169887 -1.610000
v 0.965883 -4.135118 -1.610000
v 0.965883 -4.135118 1.610000
v 2.007655 -3.169887 1.610000
v -2.012245 -3.168912 1.610001
v -0.966000 -4.134260 1.610001
v -3.058490 -3.168912 1.610001
v -7.245000 2.949088 1.610002
v -6.119248 -4.134733 1.610001
v -4.025000 -4.134912 1.610001
v -6.119249 -4.134733 -1.609999
v -7.245000 2.949088 -1.609998
v -3.058491 -3.168912 -1.609999
v -4.025000 -4.134912 -1.609999
v -0.966025 -5.101152 1.610001
v 0.965726 -5.102014 -1.610000
v 0.965726 -5.102015 1.610000
v -0.966026 -5.101152 -1.610000
v -0.966000 -4.134260 1.610001
v -0.966000 -4.134260 -1.610000
v -0.966000 -4.134260 1.610001
v -2.024777 -4.134912 -1.609999
v -2.024776 -4.134912 1.610001
v 2.093000 9.228088 -1.609998
v -2.093000 8.101089 -1.609997
v -2.093000 9.228088 -1.609997
v -2.093000 8.101089 -1.609997
v 2.093000 8.101089 -1.609998
v 4.025000 7.135089 -1.609998
v 4.025000 8.101089 -1.609998
v -2.093000 8.101089 -1.609997
v -4.025000 7.135089 -1.609997
v -4.025000 8.101089 -1.609997
v -4.025000 7.135089 -1.609997
v 4.025000 7.135089 -1.609998
v 5.152000 6.008088 -1.609998
v 5.152000 7.135089 -1.609998
v -6.118001 2.949088 -1.609998
v 6.118000 2.949088 -1.610000
v -2.012245 -3.168912 -1.609999
v -5.152000 6.008088 -1.609997
v -6.118001 6.008088 -1.609997
v 6.118000 2.949088 -1.610000
v 5.152000 6.008088 -1.609998
v 6.118000 6.008088 -1.609999
v 5.152000 6.008088 -1.609998
v -5.152000 6.008088 -1.609997
v -4.025000 7.135089 -1.609997
v -5.152000 7.135089 -1.609997
v 7.245000 -4.134288 -1.610001
v 7.245000 2.949088 1.610000
v 7.245000 -4.134288 1.609999
v 7.245000 2.949088 1.610000
v 7.245000 2.949088 -1.610000
v 6.118001 2.949088 1.610001
v 6.118000 2.949088 -1.610000
v 6.118001 6.008088 1.610002
v 6.118000 6.008088 -1.609999
v 5.152000 6.008088 1.610002
v 5.152000 6.008088 -1.609998
v 5.152000 6.008088 1.610002
v 5.152000 7.135089 -1.609998
v 5.152000 7.135089 1.610002
v 4.025000 7.135089 -1.609998
v 4.025000 7.135089 1.610002
v 4.025000 8.101089 -1.609998
v 4.025000 8.101089 1.610002
v 2.093000 8.101089 -1.609998
v 2.093000 8.101089 1.610002
v 2.093000 9.228088 -1.609998
v 2.093000 9.228088 1.610002
v -2.093000 9.228088 1.610003
v 2.093000 8.101089 1.610002
v -2.093000 9.228088 1.610003
v -2.093000 8.101089 1.610003
v -2.093000 9.228088 1.610003
v -2.093000 9.228088 -1.609997
v 2.093000 9.228088 -1.609998
v 4.025000 7.135089 1.610002
v 5.152000 6.008088 1.610002
v 5.152000 7.135089 1.610002
v 5.152000 6.008088 1.610002
v -5.152000 6.008088 1.610003
v 5.152000 6.008088 1.610002
v -6.118000 2.949088 1.610002
v 6.118001 2.949088 1.610001
v -2.012245 -3.168912 1.610001
v 2.093000 8.101089 1.610002
v 4.025000 7.135089 1.610002
v 4.025000 8.101089 1.610002
v -4.025000 7.135089 1.610003
v -2.093000 8.101089 1.610003
v -4.025000 8.101089 1.610003
v -2.093000 8.101089 1.610003
v -2.093000 8.101089 -1.609997
v -2.093000 9.228088 -1.609997
v -4.025000 7.135089 1.610003
v -5.152000 6.008088 1.610003
v 4.025000 7.135089 1.610002
v -5.152000 7.135089 1.610003
v -4.025000 7.135089 -1.609997
v -5.152000 7.135089 1.610003
v -5.152000 7.135089 -1.609997
v -5.152000 7.135089 1.610003
v -5.152000 6.008088 -1.609997
v -5.152000 6.008088 1.610003
v -6.118001 6.008088 -1.609997
v -5.152000 6.008088 1.610003
v -6.118000 6.008088 1.610003
v -6.118000 2.949088 1.610002
v -6.118001 6.008088 -1.609997
v -6.118000 2.949088 1.610002
v -6.118001 2.949088 -1.609998
v -6.118000 2.949088 1.610002
v -7.245000 2.949088 -1.609998
v -7.245000 2.949088 1.610002
v -7.245000 2.949088 -1.609998
v -7.245000 -4.134288 1.610001
v -7.245000 -4.134288 -1.609999
v 7.245000 2.949088 1.610000
v 6.109400 -4.134733 1.610000
v 7.245000 -4.134288 1.609999
v 6.109400 -4.134733 1.610000
v 6.118001 2.949088 1.610001
v 4.025000 -4.134912 1.610000
v 3.033360 -3.170943 1.610000
v -4.023580 -5.103410 1.610001
v -4.025000 -4.134912 -1.609999
v -4.025000 -4.134912 1.610001
v -4.023580 -5.103410 -1.609999
v -4.023580 -5.103410 1.610001
v -6.118731 -5.101444 -1.609999
v -6.118731 -5.101444 1.610001
v -4.025000 8.101089 -1.609997
v -4.025000 8.101089 1.610003
v -2.093000 8.101089 -1.609997
v -4.025000 7.135089 1.610003
v -4.025000 7.135089 -1.609997
v 3.033360 -3.170942 -1.610000
v 2.007655 -3.169887 1.610000
v 2.007654 -3.169887 -1.610000
v 3.033360 -3.170943 1.610000
v 3.031890 -4.134912 -1.610000
v 3.031891 -4.134912 1.610000
v 4.025000 -4.134912 -1.610000
v 4.025000 -4.134912 1.610000
v 4.025000 -4.134912 -1.610000
v 4.024829 -5.101958 1.610000
v 4.024828 -5.101958 -1.610000
vt 0.8750 0.5625
vt 0.8750 0.7500
vt 0.8125 0.7500
vt 0.1094 0.0625
vt 0.0625 0.0625
vt 0.0625 0.5625
vt 0.2500 0.1875
vt 0.2500 0.1250
vt 0.3125 0.1250
vt 0.7500 0.1875
vt 0.7500 0.1250
vt 0.6875 0.1250
vt 0.6875 0.1250
vt 0.7500 0.1250
vt 0.7500 0.1875
vt 0.2500 0.1875
vt 0.2500 0.1250
vt 0.3125 0.1250
vt 0.0625 0.5625
vt 0.1250 0.5625
vt 0.3125 0.1875
vt 0.3125 0.1250
vt 0.2500 0.1250
vt 0.2500 0.1875
vt 0.4375 0.1562
vt 0.4375 0.0625
vt 0.3750 0.0625
vt 0.8750 0.5625
vt 0.9219 0.1250
vt 0.8750 0.1250
vt 0.5469 0.2031
vt 0.6953 0.2207
vt 0.8750 0.5625
vt 0.6875 0.1250
vt 0.7500 0.1250
vt 0.7500 0.1875
vt 0.3125 0.1250
vt 0.2500 0.1250
vt 0.2500 0.1875
vt 0.3750 0.1875
vt 0.3281 0.1875
vt 0.1250 0.5625
vt 0.6250 0.1875
vt 0.7031 0.2188
vt 0.8750 0.5625
vt 0.8750 0.5625
vt 0.7031 0.2188
vt 0.6250 0.1875
vt 0.8750 0.5625
vt 0.6250 0.2031
vt 0.3789 0.2031
vt 0.3711 0.2031
vt 0.6211 0.2013
vt 0.8750 0.5625
vt 0.0625 0.5625
vt 0.0625 0.1250
vt 0.1250 0.1250
vt 0.4375 0.0625
vt 0.4375 0.1250
vt 0.3125 0.1250
vt 0.3125 0.0625
vt 0.8750 0.1406
vt 0.8750 0.5625
vt 0.9375 0.5625
vt 0.9375 0.0625
vt 0.3125 0.1875
vt 0.3750 0.1875
vt 0.1250 0.5625
vt 0.0625 0.5625
vt 0.8125 0.1250
vt 0.8125 0.1562
vt 0.7500 0.1562
vt 0.7500 0.1250
vt 0.8125 0.1562
vt 0.7500 0.1562
vt 0.7500 0.1250
vt 0.8125 0.1250
vt 0.4375 0.0625
vt 0.5625 0.0625
vt 0.5625 0.1250
vt 0.4375 0.1250
vt 0.8125 0.1562
vt 0.7500 0.1562
vt 0.7500 0.1250
vt 0.8125 0.1250
vt 0.8125 0.1250
vt 0.8125 0.1562
vt 0.7500 0.1562
vt 0.7500 0.1250
vt 0.7500 0.1562
vt 0.7500 0.1250
vt 0.8125 0.1250
vt 0.8125 0.1562
vt 0.5625 0.1250
vt 0.4375 0.1250
vt 0.4375 0.0625
vt 0.5625 0.0625
vt 0.5625 0.0625
vt 0.5625 0.1094
vt 0.4375 0.1094
vt 0.4375 0.0625
vt 0.5625 0.1250
vt 0.4375 0.1250
vt 0.4375 0.0625
vt 0.5625 0.0625
vt 0.4375 0.0625
vt 0.5625 0.0625
vt 0.5625 0.1250
vt 0.4375 0.1250
vt 0.4375 0.0625
vt 0.5625 0.0625
vt 0.5625 0.1250
vt 0.4375 0.1250
vt 0.4375 0.0625
vt 0.5625 0.0625
vt 0.5625 0.1250
vt 0.4375 0.1250
vt 0.4375 0.0625
vt 0.4375 0.1250
vt 0.3125 0.1250
vt 0.3125 0.0625
vt 0.9375 0.0625
vt 0.9375 0.1250
vt 0.8750 0.1250
vt 0.8750 0.0625
vt 0.3125 0.0625
vt 0.3125 0.1250
vt 0.4375 0.1250
vt 0.4375 0.0625
vt 0.4375 0.0625
vt 0.4375 0.1250
vt 0.3125 0.1250
vt 0.3125 0.0625
vt 0.8750 0.0625
vt 0.8750 0.1250
vt 0.9375 0.1250
vt 0.9375 0.0625
vt 0.4219 0.1250
vt 0.3789 0.1875
vt 0.4219 0.1875
vt 0.4219 0.1875
vt 0.6094 0.2031
vt 0.6055 0.3107
vt 0.3555 0.3125
vt 0.3594 0.2031
vt 0.3125 0.2031
vt 0.0625 0.5625
vt 0.1250 0.2031
vt 0.2500 0.2344
vt 0.1250 0.2031
vt 0.0625 0.5625
vt 0.3125 0.2031
vt 0.2500 0.2344
vt 0.4375 0.0625
vt 0.5625 0.1250
vt 0.4375 0.1250
vt 0.5625 0.0625
vt 0.4375 0.1250
vt 0.5625 0.1250
vt 0.4375 0.1250
vt 0.5625 0.0625
vt 0.4375 0.0625
vt 0.6250 0.9375
vt 0.3750 0.8750
vt 0.3750 0.9375
vt 0.3750 0.8750
vt 0.6250 0.8750
vt 0.7500 0.8125
vt 0.7500 0.8750
vt 0.3750 0.8750
vt 0.2500 0.8125
vt 0.2500 0.8750
vt 0.2500 0.8125
vt 0.7500 0.8125
vt 0.8125 0.7500
vt 0.8125 0.8125
vt 0.1250 0.5625
vt 0.8750 0.5625
vt 0.3789 0.1875
vt 0.1875 0.7500
vt 0.1250 0.7500
vt 0.8750 0.5625
vt 0.8125 0.7500
vt 0.8750 0.7500
vt 0.8125 0.7500
vt 0.1875 0.7500
vt 0.2500 0.8125
vt 0.1875 0.8125
vt 0.9922 0.0195
vt 0.9375 0.5625
vt 0.9375 0.0625
vt 0.9375 0.5625
vt 0.9922 0.6016
vt 0.8750 0.5625
vt 0.9219 0.6016
vt 0.8750 0.7500
vt 0.9219 0.7891
vt 0.8125 0.7500
vt 0.8594 0.7891
vt 0.8125 0.7500
vt 0.8594 0.8516
vt 0.8125 0.8125
vt 0.7969 0.8516
vt 0.7500 0.8125
vt 0.7969 0.9141
vt 0.7500 0.8750
vt 0.6641 0.9141
vt 0.6250 0.8750
vt 0.6641 0.9688
vt 0.6250 0.9375
vt 0.3750 0.9375
vt 0.6250 0.8750
vt 0.3750 0.9375
vt 0.3750 0.8750
vt 0.3750 0.9375
vt 0.3438 0.9688
vt 0.6641 0.9688
vt 0.7500 0.8125
vt 0.8125 0.7500
vt 0.8125 0.8125
vt 0.8125 0.7500
vt 0.1875 0.7500
vt 0.8125 0.7500
vt 0.1250 0.5625
vt 0.8750 0.5625
vt 0.3711 0.1875
vt 0.6250 0.8750
vt 0.7500 0.8125
vt 0.7500 0.8750
vt 0.2500 0.8125
vt 0.3750 0.8750
vt 0.2500 0.8750
vt 0.3750 0.8750
vt 0.3438 0.9141
vt 0.3438 0.9688
vt 0.2500 0.8125
vt 0.1875 0.7500
vt 0.7500 0.8125
vt 0.1875 0.8125
vt 0.2109 0.8516
vt 0.1875 0.8125
vt 0.1484 0.8516
vt 0.1875 0.8125
vt 0.1484 0.7891
vt 0.1875 0.7500
vt 0.0859 0.7891
vt 0.1875 0.7500
vt 0.1250 0.7500
vt 0.1250 0.5625
vt 0.0859 0.7891
vt 0.1250 0.5625
vt 0.0859 0.6016
vt 0.1250 0.5625
vt 0.0078 0.6016
vt 0.0625 0.5625
vt 0.0078 0.6016
vt 0.0625 0.0625
vt 0.0078 0.0195
vt 0.9375 0.5625
vt 0.8594 0.2031
vt 0.9375 0.2031
vt 0.8594 0.2031
vt 0.8750 0.5625
vt 0.5625 0.2031
vt 0.5625 0.2031
vt 0.1875 0.1562
vt 0.2500 0.1562
vt 0.1875 0.1562
vt 0.2500 0.1562
vt 0.1875 0.1562
vt 0.2500 0.1250
vt 0.1875 0.1250
vt 0.2109 0.9141
vt 0.2500 0.8750
vt 0.3438 0.9141
vt 0.2500 0.8125
vt 0.2109 0.8516
vt 0.5625 0.1250
vt 0.4375 0.0625
vt 0.5625 0.0625
vt 0.4375 0.1250
vt 0.5625 0.0625
vt 0.4375 0.0625
vt 0.5625 0.1250
vt 0.4375 0.1250
vt 0.5625 0.1250
vt 0.4375 0.0625
vt 0.5625 0.0625
vn 0.0000 -0.0000 1.0000
vn 0.0000 0.0000 -1.0000
vn 0.0004 -1.0000 -0.0000
vn 1.0000 0.0028 0.0000
vn 0.0000 -1.0000 -0.0000
vn 0.0002 -1.0000 -0.0000
vn -1.0000 -0.0005 0.0000
vn -0.0004 -1.0000 -0.0000
vn 1.0000 0.0000 -0.0000
vn -0.9999 0.0130 0.0000
vn -0.0011 -1.0000 -0.0000
vn 1.0000 -0.0002 -0.0000
vn -1.0000 0.0000 0.0000
vn -0.0333 0.0000 0.1795
vn 0.0000 0.0000 0.0000
vn 0.0006 -1.0000 0.0000
vn -0.0000 -0.9604 0.2786
vn 0.0000 0.0000 0.2786
vn 0.0000 0.0844 0.9964
vn 0.0000 0.0000 0.9964
vn -0.0000 0.1009 -0.9949
vn 0.0000 0.1516 -0.9884
vn -0.0000 0.0000 -0.9949
vn -0.2010 -0.0000 0.9796
vn 0.0000 0.0000 0.9796
vn 0.0000 1.0000 -0.0000
vn 0.0000 -0.0000 0.9305
vn -0.0000 -0.2421 0.9703
vn 0.0000 -0.0000 0.9703
vn -0.0000 0.1948 -0.9808
vn 0.0000 0.0000 -0.9808
vn -0.9992 -0.0399 0.0001
vn -0.9992 -0.0399 0.0000
vn -0.0439 0.0000 0.2049
vn 0.9996 -0.0288 0.0001
vn 0.9996 -0.0287 -0.0000
vn -0.9880 0.0000 -0.1542
vn -0.9727 0.0000 -0.2321
vn -0.9881 0.0000 -0.1536
vn -0.1269 0.0000 0.2623
vn 0.0000 -0.0412 -0.9992
vn 0.0000 0.0000 -0.9992
vn 1.0000 0.0015 0.0000
vn -0.0009 -1.0000 -0.0000
vn -0.0010 -1.0000 0.0000
vn -1.0000 0.0015 0.0000
vn -1.0000 0.0002 0.0000
usemtl ghost
s 1
f 1/1/1 2/2/1 3/3/1
f 4/4/2 5/5/2 6/6/2
f 7/7/2 8/8/2 9/9/2
f 10/10/1 11/11/1 12/12/1
f 13/13/2 14/14/2 15/15/2
f 16/16/2 17/17/2 18/18/2
f 19/19/2 20/20/2 21/21/2
f 22/22/1 23/23/1 24/24/1
f 25/25/1 26/26/1 27/27/1
f 28/28/2 29/29/2 30/30/2
f 31/31/2 32/32/2 33/33/2
f 34/34/1 35/35/1 36/36/1
f 37/37/2 38/38/2 39/39/2
f 40/40/2 41/41/2 42/42/2
f 43/43/1 44/44/1 45/45/1
f 46/46/2 47/47/2 48/48/2
f 49/49/2 50/50/2 51/51/2
f 52/52/1 53/53/1 54/54/1
f 55/55/1 56/56/1 57/57/1
f 58/58/2 59/59/2 60/60/2
f 61/61/2 58/58/2 60/60/2
f 62/62/2 63/63/2 64/64/2
f 65/65/2 62/62/2 64/64/2
f 66/66/1 67/67/1 68/68/1
f 69/69/1 66/66/1 68/68/1
f 70/70/3 71/71/3 72/72/3
f 73/73/3 70/70/3 72/72/3
f 74/74/4 75/75/4 76/76/4
f 77/77/4 74/74/4 76/76/4
f 78/78/5 79/79/5 80/80/5
f 81/81/5 78/78/5 80/80/5
f 82/82/6 83/83/6 84/84/6
f 85/85/6 82/82/6 84/84/6
f 86/86/7 87/87/7 88/88/7
f 89/89/7 86/86/7 88/88/7
f 90/90/8 91/91/8 92/92/8
f 93/93/8 90/90/8 92/92/8
f 94/94/9 95/95/9 96/96/9
f 97/97/9 94/94/9 96/96/9
f 98/98/5 99/99/5 100/100/5
f 101/101/5 98/98/5 100/100/5
f 102/102/10 103/103/10 104/104/10
f 105/105/10 102/102/10 104/104/10
f 106/106/11 107/107/11 108/108/11
f 109/109/11 106/106/11 108/108/11
f 110/110/12 111/111/12 112/112/12
f 113/113/12 110/110/12 112/112/12
f 114/114/12 115/115/12 116/116/12
f 117/117/12 114/114/12 116/116/12
f 118/118/1 119/119/1 120/120/1
f 121/121/1 118/118/1 120/120/1
f 122/122/1 123/123/1 124/124/1
f 125/125/1 122/122/1 124/124/1
f 126/126/1 127/127/1 128/128/1
f 129/129/1 126/126/1 128/128/1
f 130/130/2 131/131/2 132/132/2
f 133/133/2 130/130/2 132/132/2
f 134/134/2 135/135/2 136/136/2
f 137/137/2 134/134/2 136/136/2
f 138/138/2 139/139/2 140/140/2
f 141/141/2 138/138/2 140/140/2
f 142/142/1 143/143/1 144/144/1
f 145/145/1 142/142/1 144/144/1
f 146/146/1 147/147/1 148/148/1
f 149/149/1 146/146/1 148/148/1
f 150/150/2 151/151/2 152/152/2
f 153/153/2 150/150/2 152/152/2
f 154/154/8 155/155/8 156/156/8
f 154/154/8 157/157/8 155/155/8
f 158/158/13 157/157/13 154/154/13
f 158/158/14 159/159/13 157/157/13
f 160/160/15 159/159/13 158/158/14
f 160/160/16 161/161/16 159/159/16
f 162/162/16 161/161/16 160/160/16
f 163/163/2 164/164/2 165/165/2
f 163/163/17 166/166/18 164/164/17
f 167/167/2 166/166/2 163/163/2
f 167/167/2 168/168/2 166/166/2
f 169/169/2 168/168/2 167/167/2
f 170/170/2 171/171/2 172/172/2
f 170/170/19 173/173/20 171/171/19
f 174/174/2 173/173/2 170/170/2
f 174/174/2 175/175/2 173/173/2
f 176/176/2 175/175/2 174/174/2
f 177/177/2 178/178/2 179/179/2
f 177/177/2 180/180/2 178/178/2
f 181/181/2 180/180/2 177/177/2
f 182/182/21 183/183/22 184/184/2
f 182/182/21 185/185/23 183/183/22
f 186/186/2 185/185/23 182/182/21
f 186/186/2 187/187/2 185/185/23
f 188/188/2 187/187/2 186/186/2
f 189/189/9 190/190/9 191/191/9
f 189/189/24 192/192/25 190/190/24
f 193/193/9 192/192/9 189/189/9
f 193/193/26 194/194/26 192/192/26
f 195/195/26 194/194/26 193/193/26
f 195/195/9 196/196/9 194/194/9
f 197/197/9 196/196/9 195/195/9
f 197/197/26 198/198/26 196/196/26
f 199/199/26 198/198/26 197/197/26
f 199/199/15 200/200/15 198/198/15
f 201/201/9 200/200/9 199/199/9
f 201/201/9 202/202/9 200/200/9
f 203/203/26 202/202/26 201/201/26
f 203/203/26 204/204/26 202/202/26
f 205/205/9 204/204/9 203/203/9
f 205/205/9 206/206/9 204/204/9
f 207/207/26 206/206/26 205/205/26
f 207/207/26 208/208/26 206/206/26
f 209/209/9 208/208/9 207/207/9
f 209/209/9 210/210/9 208/208/9
f 211/211/26 210/210/26 209/209/26
f 211/211/27 212/212/28 210/210/1
f 213/213/29 212/212/28 211/211/27
f 213/213/29 214/214/1 212/212/28
f 215/215/1 214/214/1 213/213/29
f 215/215/13 216/216/13 214/214/13
f 217/217/26 216/216/26 215/215/26
f 218/218/1 219/219/1 220/220/1
f 218/218/30 221/221/31 219/219/30
f 222/222/1 221/221/1 218/218/1
f 222/222/5 223/223/15 221/221/5
f 224/224/1 223/223/1 222/222/1
f 224/224/1 225/225/1 223/223/1
f 226/226/1 225/225/1 224/224/1
f 227/227/1 228/228/1 229/229/1
f 227/227/1 230/230/1 228/228/1
f 231/231/1 230/230/1 227/227/1
f 231/231/1 232/232/1 230/230/1
f 233/233/26 232/232/26 231/231/15
f 233/233/26 234/234/26 232/232/26
f 235/235/13 234/234/13 233/233/13
f 236/236/1 237/237/1 238/238/1
f 236/236/1 239/239/1 237/237/1
f 240/240/26 239/239/26 236/236/26
f 240/240/32 241/241/15 239/239/33
f 242/242/26 241/241/26 240/240/26
f 242/242/13 243/243/34 241/241/15
f 244/244/13 243/243/34 242/242/13
f 244/244/13 245/245/13 243/243/13
f 246/246/26 245/245/26 244/244/26
f 246/246/35 247/247/15 245/245/36
f 248/248/26 247/247/26 246/246/26
f 248/248/1 249/249/1 247/247/1
f 250/250/37 249/249/38 248/248/13
f 250/250/39 251/251/40 249/249/38
f 252/252/13 251/251/40 250/250/39
f 252/252/15 253/253/15 251/251/15
f 254/254/26 253/253/26 252/252/26
f 254/254/26 255/255/26 253/253/26
f 256/256/15 255/255/15 254/254/15
f 256/256/13 257/257/13 255/255/13
f 258/258/13 257/257/13 256/256/13
f 259/259/1 260/260/1 261/261/1
f 259/259/41 262/262/42 260/260/41
f 263/263/1 262/262/1 259/259/1
f 263/263/1 264/264/1 262/262/1
f 265/265/1 264/264/1 263/263/1
f 266/266/43 267/267/43 268/268/43
f 266/266/43 269/269/43 267/267/43
f 270/270/15 269/269/15 266/266/15
f 270/270/44 271/271/44 269/269/44
f 272/272/44 271/271/44 270/270/44
f 273/273/26 274/274/26 275/275/26
f 273/273/13 276/276/13 274/274/13
f 277/277/13 276/276/13 273/273/13
f 278/278/45 279/279/45 280/280/45
f 278/278/45 281/281/45 279/279/45
f 282/282/46 281/281/46 278/278/46
f 282/282/46 283/283/46 281/281/46
f 284/284/5 283/283/5 282/282/5
f 284/284/5 285/285/5 283/283/5
f 286/286/15 285/285/15 284/284/15
f 286/286/47 287/287/47 285/285/47
f 288/288/47 287/287/47 286/286/47
