%YAML 1.1
%TAG !u! tag:unity3d.com,2011:
--- !u!1045 &1
EditorBuildSettings:
  m_ObjectHideFlags: 0
  serializedVersion: 2
  m_Scenes:
  - enabled: 1
    path: Assets/Pacman/Scenes/MainMenu.unity
    guid: 2103f166f0f6fc346bf3f4e4b23e0e94
  - enabled: 1
    path: Assets/Pacman/Scenes/Pacman.unity
    guid: d4de2747e5692aa43af5c2be8e2c5532
